{
  "module-name": "bantam-effects",
  "module-desc": "The bantam-effects module implements a set of CSS entry animations that are applied to elements as they enter the view window.",
  "author": "Caspar Anderegg <canderegg@alarm.com>",
  "documentation": "https://gitlab.com/canderegg/bantam-effects/blob/master/README.md",
  "repository": "https://gitlab.com/canderegg/bantam-effects.git",
  "license": "https://gitlab.com/canderegg/bantam-effects/blob/master/LICENSE",
  "dependencies": {
    "bantam": "+1.0"
  },
  "versions": {
    "1.0": [
      "https://canderegg.gitlab.io/bantam-coop/files/bantam-effects/1.0/bantam-effects-1.0.min.css",
      "https://canderegg.gitlab.io/bantam-coop/files/bantam-effects/1.0/bantam-effects-1.0.min.js",
      "https://canderegg.gitlab.io/bantam-coop/files/bantam-effects/LICENSE.txt"
    ]
  }
}
