{
  "module-name": "bantam-alerts",
  "module-desc": "The bantam-alerts module implements a set of Bootstrap-like alert boxes for BantamJS. Each is a div element styled with the alert and alert type classes.",
  "author": "Caspar Anderegg <canderegg@alarm.com>",
  "documentation": "https://gitlab.com/canderegg/bantam-alerts/blob/master/README.md",
  "repository": "https://gitlab.com/canderegg/bantam-alerts.git",
  "license": "https://gitlab.com/canderegg/bantam-alerts/blob/master/LICENSE",
  "dependencies": {
  },
  "versions": {
    "1.0": [
      "https://canderegg.gitlab.io/bantam-coop/files/bantam-alerts/1.0/bantam-alerts-1.0.min.css",
      "https://canderegg.gitlab.io/bantam-coop/files/bantam-alerts/LICENSE.txt"
    ]
  }
}
