{
  "module-name": "bantam-tabs",
  "module-desc": "A module to implement fading tab functionality for BantamJS. A list of links, styled as tabs, are linked to a series of divs by ID. When the relevant tab is clicked, the tab pane that is currently being shown fades out and is replaced by the new one.",
  "author": "Caspar Anderegg <canderegg@alarm.com>",
  "documentation": "https://gitlab.com/canderegg/bantam-tabs/blob/master/README.md",
  "repository": "https://gitlab.com/canderegg/bantam-tabs.git",
  "license": "https://gitlab.com/canderegg/bantam-tabs/blob/master/LICENSE",
  "dependencies": {
    "bantam": "+1.1"
  },
  "versions": {
    "1.0": [
      "https://canderegg.gitlab.io/bantam-coop/files/bantam-tabs/1.0/bantam-tabs-1.0.min.js",
      "https://canderegg.gitlab.io/bantam-coop/files/bantam-tabs/1.0/bantam-tabs-1.0.min.css",
      "https://canderegg.gitlab.io/bantam-coop/files/bantam-tabs/LICENSE.txt"
    ]
  }
}
